{
    "ha_enabled": false,
    "gpu_enabled": false,
    "is_master_dedicated": false,
    "gpu_vendor": "",
    "cluster_blueprint": "default",
    "capacity": [],
    "edge_provider_params": {
        "params": "{}"
    },
    "name": "testapiIulian",
    "cluster_type": "manual",
    "provision_os": "Ubuntu18.04",
    "provision_k8s": "v1.18.6",
    "storage_class_map": {
        "HostPath": "/var/openebs/local/",
        "GlusterFs": ""
    },
    "default_storage_class": "GlusterFs",
    "auto_approve_nodes": true,
    "metro": {
        "name": "lowell"
    },
    "labels": {}
}
